\select@language {russian}
\contentsline {section}{\IeC {\CYRV }\IeC {\cyrv }\IeC {\cyre }\IeC {\cyrd }\IeC {\cyre }\IeC {\cyrn }\IeC {\cyri }\IeC {\cyre }}{2}{chapter*.1}
\contentsline {section}{\IeC {\CYRV }\IeC {\cyre }\IeC {\cyrr }\IeC {\cyro }\IeC {\cyrya }\IeC {\cyrt }\IeC {\cyrn }\IeC {\cyro }\IeC {\cyrs }\IeC {\cyrt }\IeC {\cyrsftsn } \IeC {\cyrv }\IeC {\cyrery }\IeC {\cyri }\IeC {\cyrg }\IeC {\cyrr }\IeC {\cyrery }\IeC {\cyrv }\IeC {\cyra }\IeC {\cyrt }\IeC {\cyrsftsn }}{3}{section*.3}
\contentsline {subsection}{\IeC {\CYRM }\IeC {\cyre }\IeC {\cyrt }\IeC {\cyro }\IeC {\cyrd } \IeC {\cyrp }\IeC {\cyrr }\IeC {\cyro }\IeC {\cyrg }\IeC {\cyro }\IeC {\cyrn }\IeC {\cyrk }\IeC {\cyri }}{3}{section*.4}
\contentsline {subsection}{\IeC {\CYRM }\IeC {\cyre }\IeC {\cyrt }\IeC {\cyro }\IeC {\cyrd } \IeC {\cyrs } \IeC {\cyri }\IeC {\cyrs }\IeC {\cyrp }\IeC {\cyro }\IeC {\cyrl }\IeC {\cyrsftsn }\IeC {\cyrz }\IeC {\cyro }\IeC {\cyrv }\IeC {\cyra }\IeC {\cyrn }\IeC {\cyri }\IeC {\cyre }\IeC {\cyrm } \IeC {\cyrb }\IeC {\cyrery }\IeC {\cyrs }\IeC {\cyrt }\IeC {\cyrr }\IeC {\cyro }\IeC {\cyrg }\IeC {\cyro } \IeC {\cyrv }\IeC {\cyro }\IeC {\cyrz }\IeC {\cyrv }\IeC {\cyre }\IeC {\cyrd }\IeC {\cyre }\IeC {\cyrn }\IeC {\cyri }\IeC {\cyrya } \IeC {\cyrv } \IeC {\cyrs }\IeC {\cyrt }\IeC {\cyre }\IeC {\cyrp }\IeC {\cyre }\IeC {\cyrn }\IeC {\cyrsftsn }}{4}{section*.6}
\contentsline {section}{\IeC {\CYRV }\IeC {\cyre }\IeC {\cyrr }\IeC {\cyro }\IeC {\cyrya }\IeC {\cyrt }\IeC {\cyrn }\IeC {\cyro }\IeC {\cyrs }\IeC {\cyrt }\IeC {\cyrsftsn } \IeC {\cyrv }\IeC {\cyrery }\IeC {\cyri }\IeC {\cyrg }\IeC {\cyrr }\IeC {\cyra }\IeC {\cyrt }\IeC {\cyrsftsn } \IeC {\cyrz }\IeC {\cyra } n \IeC {\cyrh }\IeC {\cyro }\IeC {\cyrd }\IeC {\cyro }\IeC {\cyrv }}{7}{section*.8}
\contentsline {section}{\IeC {\CYRS }\IeC {\cyrr }\IeC {\cyre }\IeC {\cyrd }\IeC {\cyrn }\IeC {\cyrya }\IeC {\cyrya } \IeC {\cyrp }\IeC {\cyrr }\IeC {\cyro }\IeC {\cyrd }\IeC {\cyro }\IeC {\cyrl }\IeC {\cyrzh }\IeC {\cyri }\IeC {\cyrt }\IeC {\cyre }\IeC {\cyrl }\IeC {\cyrsftsn }\IeC {\cyrn }\IeC {\cyro }\IeC {\cyrs }\IeC {\cyrt }\IeC {\cyrsftsn } \IeC {\cyri }\IeC {\cyrg }\IeC {\cyrr }\IeC {\cyrery }}{8}{section*.9}
\contentsline {subsection}{\IeC {\CYRM }\IeC {\cyra }\IeC {\cyrt }\IeC {\cyrr }\IeC {\cyri }\IeC {\cyrch }\IeC {\cyrn }\IeC {\cyro }\IeC {\cyre } \IeC {\cyrp }\IeC {\cyrr }\IeC {\cyre }\IeC {\cyrd }\IeC {\cyrs }\IeC {\cyrt }\IeC {\cyra }\IeC {\cyrv }\IeC {\cyrl }\IeC {\cyre }\IeC {\cyrn }\IeC {\cyri }\IeC {\cyre } \IeC {\cyrz }\IeC {\cyra }\IeC {\cyrd }\IeC {\cyra }\IeC {\cyrch }\IeC {\cyri }}{8}{section*.10}
\contentsline {section}{\IeC {\CYRS }\IeC {\cyrr }\IeC {\cyre }\IeC {\cyrd }\IeC {\cyrn }\IeC {\cyrya }\IeC {\cyrya } \IeC {\cyrp }\IeC {\cyrr }\IeC {\cyro }\IeC {\cyrd }\IeC {\cyro }\IeC {\cyrl }\IeC {\cyrzh }\IeC {\cyri }\IeC {\cyrt }\IeC {\cyre }\IeC {\cyrl }\IeC {\cyrsftsn }\IeC {\cyrn }\IeC {\cyro }\IeC {\cyrs }\IeC {\cyrt }\IeC {\cyrsftsn } \IeC {\cyri }\IeC {\cyrg }\IeC {\cyrr }\IeC {\cyrery } \IeC {\cyrp }\IeC {\cyrr }\IeC {\cyri } \IeC {\cyrm }\IeC {\cyre }\IeC {\cyrn }\IeC {\cyrya }\IeC {\cyryu }\IeC {\cyrshch }\IeC {\cyre }\IeC {\cyrishrt }\IeC {\cyrs }\IeC {\cyrya } \IeC {\cyrm }\IeC {\cyro }\IeC {\cyrn }\IeC {\cyre }\IeC {\cyrt }\IeC {\cyre }}{10}{section*.11}
\contentsline {section}{\IeC {\CYRZ }\IeC {\cyra }\IeC {\cyrk }\IeC {\cyrl }\IeC {\cyryu }\IeC {\cyrch }\IeC {\cyre }\IeC {\cyrn }\IeC {\cyri }\IeC {\cyre }}{11}{section*.12}
\contentsline {section}{\IeC {\CYRS }\IeC {\cyrp }\IeC {\cyri }\IeC {\cyrs }\IeC {\cyro }\IeC {\cyrk } \IeC {\cyri }\IeC {\cyrs }\IeC {\cyrp }\IeC {\cyro }\IeC {\cyrl }\IeC {\cyrsftsn }\IeC {\cyrz }\IeC {\cyro }\IeC {\cyrv }\IeC {\cyra }\IeC {\cyrn }\IeC {\cyrn }\IeC {\cyrery }\IeC {\cyrh } \IeC {\cyri }\IeC {\cyrs }\IeC {\cyrt }\IeC {\cyro }\IeC {\cyrch }\IeC {\cyrn }\IeC {\cyri }\IeC {\cyrk }\IeC {\cyro }\IeC {\cyrv }}{12}{section*.13}
\contentsline {section}{\IeC {\CYRP }\IeC {\cyrr }\IeC {\cyri }\IeC {\cyrl }\IeC {\cyro }\IeC {\cyrzh }\IeC {\cyre }\IeC {\cyrn }\IeC {\cyri }\IeC {\cyre }}{13}{section*.14}
